^E:\COLLEGE\SEMESTER 6\C++\PROJECTS\ULTRAGREP\ULTRAGREP\MAIN.CPP
/c /ZI /nologo /W3 /WX- /Od /Oy- /D WIN32 /D _DEBUG /D _CONSOLE /D _UNICODE /D UNICODE /Gm /EHsc /RTC1 /MDd /GS /fp:precise /Zc:wchar_t /Zc:forScope /Zc:inline /Fo"DEBUG\\" /Fd"DEBUG\VC140.PDB" /Gd /TP /analyze- E:\COLLEGE\SEMESTER 6\C++\PROJECTS\ULTRAGREP\ULTRAGREP\MAIN.CPP
^E:\COLLEGE\SEMESTER 6\C++\PROJECTS\ULTRAGREP\ULTRAGREP\THREADPOOL.CPP
/c /ZI /nologo /W3 /WX- /Od /Oy- /D WIN32 /D _DEBUG /D _CONSOLE /D _UNICODE /D UNICODE /Gm /EHsc /RTC1 /MDd /GS /fp:precise /Zc:wchar_t /Zc:forScope /Zc:inline /Fo"DEBUG\\" /Fd"DEBUG\VC140.PDB" /Gd /TP /analyze- E:\COLLEGE\SEMESTER 6\C++\PROJECTS\ULTRAGREP\ULTRAGREP\THREADPOOL.CPP
^E:\COLLEGE\SEMESTER 6\C++\PROJECTS\ULTRAGREP\ULTRAGREP\ULTRAGREP.CPP
/c /ZI /nologo /W3 /WX- /Od /Oy- /D WIN32 /D _DEBUG /D _CONSOLE /D _UNICODE /D UNICODE /Gm /EHsc /RTC1 /MDd /GS /fp:precise /Zc:wchar_t /Zc:forScope /Zc:inline /Fo"DEBUG\\" /Fd"DEBUG\VC140.PDB" /Gd /TP /analyze- E:\COLLEGE\SEMESTER 6\C++\PROJECTS\ULTRAGREP\ULTRAGREP\ULTRAGREP.CPP
