e:\college\semester 6\c++\projects\ultragrep\ultragrep\debug\vc140.pdb
e:\college\semester 6\c++\projects\ultragrep\ultragrep\debug\vc140.idb
e:\college\semester 6\c++\projects\ultragrep\ultragrep\debug\threadpool_main.obj
e:\college\semester 6\c++\projects\ultragrep\ultragrep\debug\ultragrep_main.obj
e:\college\semester 6\c++\projects\ultragrep\ultragrep\debug\main.obj
e:\college\semester 6\c++\projects\ultragrep\ultragrep\debug\threadpool.obj
e:\college\semester 6\c++\projects\ultragrep\ultragrep\debug\ultragrep.obj
e:\college\semester 6\c++\projects\ultragrep\ultragrep\debug\output.obj
e:\college\semester 6\c++\projects\ultragrep\debug\ultragrep.ilk
e:\college\semester 6\c++\projects\ultragrep\debug\ultragrep.exe
e:\college\semester 6\c++\projects\ultragrep\debug\ultragrep.pdb
e:\college\semester 6\c++\projects\ultragrep\ultragrep\debug\ultragrep.tlog\cl.command.1.tlog
e:\college\semester 6\c++\projects\ultragrep\ultragrep\debug\ultragrep.tlog\cl.read.1.tlog
e:\college\semester 6\c++\projects\ultragrep\ultragrep\debug\ultragrep.tlog\cl.write.1.tlog
e:\college\semester 6\c++\projects\ultragrep\ultragrep\debug\ultragrep.tlog\link.command.1.tlog
e:\college\semester 6\c++\projects\ultragrep\ultragrep\debug\ultragrep.tlog\link.read.1.tlog
e:\college\semester 6\c++\projects\ultragrep\ultragrep\debug\ultragrep.tlog\link.write.1.tlog
